[
    {
        "annotations": [
            {
                "CM": 0,
                "FM": 0,
                "ID": 1,
                "IV": 0,
                "Occ": 0,
                "SV": 0,
                "class": "Vehicle",
                "height": 334.2383248127,
                "scale": "special",
                "width": 279.15988044958584,
                "x": 1093.083747484222,
                "y": 449.36907650609504
            },
            {
                "CM": 0,
                "FM": 0,
                "ID": 2,
                "IV": 0,
                "Occ": 0,
                "SV": 0,
                "class": "Vehicle",
                "height": 65.99545495790787,
                "scale": "special",
                "width": 67.49368076907473,
                "x": 936.5370296727922,
                "y": 625.4439821603
            },
            {
                "CM": 0,
                "FM": 0,
                "ID": 3,
                "IV": 0,
                "Occ": 1,
                "SV": 0,
                "class": "Vehicle",
                "height": 26.264364443380174,
                "scale": "small",
                "width": 29.309113378648192,
                "x": 912.068476059669,
                "y": 655.7217707887211
            },
            {
                "CM": 0,
                "FM": 0,
                "ID": 4,
                "IV": 0,
                "Occ": 0,
                "SV": 0,
                "class": "Vehicle",
                "height": 31.576635120469064,
                "scale": "small",
                "width": 35.9515021881611,
                "x": 860.5825267445407,
                "y": 647.4618537017449
            },
            {
                "CM": 0,
                "FM": 0,
                "ID": 5,
                "IV": 0,
                "Occ": 1,
                "SV": 0,
                "class": "Vehicle",
                "height": 42.2315296653,
                "scale": "special",
                "width": 22.6368871039,
                "x": 913.309751609,
                "y": 621.952467509
            },
            {
                "CM": 0,
                "FM": 0,
                "ID": 6,
                "IV": 0,
                "Occ": 1,
                "SV": 0,
                "class": "Vehicle",
                "height": 31.4775234789,
                "scale": "notcare",
                "width": 38.4953164606,
                "x": 777.126258837,
                "y": 623.416224469
            }
        ],
        "class": "image",
        "filename": "..\\camera_12_5mm\\frame16015.jpg"
    },
    {
        "annotations": [
            {
                "CM": 0,
                "FM": 0,
                "ID": 1,
                "IV": 0,
                "Occ": 0,
                "SV": 0,
                "class": "Vehicle",
                "height": 352.5921051805009,
                "scale": "special",
                "width": 277.6303987522692,
                "x": 1102.2606376681222,
                "y": 437.8979637762195
            },
            {
                "CM": 0,
                "FM": 0,
                "ID": 2,
                "IV": 0,
                "Occ": 0,
                "SV": 0,
                "class": "Vehicle",
                "height": 64.84147751915972,
                "scale": "special",
                "width": 70.95561308531904,
                "x": 936.5370296727922,
                "y": 620.8280724053077
            },
            {
                "CM": 0,
                "FM": 0,
                "ID": 3,
                "IV": 0,
                "Occ": 1,
                "SV": 0,
                "class": "Vehicle",
                "height": 29.34163761337507,
                "scale": "small",
                "width": 33.54036398739123,
                "x": 918.9923406921577,
                "y": 649.9518835949808
            },
            {
                "CM": 0,
                "FM": 0,
                "ID": 4,
                "IV": 0,
                "Occ": 0,
                "SV": 0,
                "class": "Vehicle",
                "height": 33.11527170546651,
                "scale": "small",
                "width": 37.87479791940797,
                "x": 864.4291182070343,
                "y": 641.307307361755
            },
            {
                "CM": 0,
                "FM": 0,
                "ID": 5,
                "IV": 0,
                "Occ": 0,
                "SV": 0,
                "class": "Vehicle",
                "height": 45.6934619815176,
                "scale": "special",
                "width": 29.945410882610815,
                "x": 913.3097516091742,
                "y": 619.2598534853511
            },
            {
                "CM": 0,
                "FM": 0,
                "ID": 6,
                "IV": 0,
                "Occ": 1,
                "SV": 0,
                "class": "Vehicle",
                "height": 35.708774087643036,
                "scale": "notcare",
                "width": 39.64929389934803,
                "x": 777.8955771294987,
                "y": 616.107700690262
            }
        ],
        "class": "image",
        "filename": "..\\camera_12_5mm\\frame16016.jpg"
    },
    {
        "annotations": [
            {
                "CM": 0,
                "FM": 0,
                "ID": 1,
                "IV": 0,
                "Occ": 0,
                "SV": 0,
                "class": "Vehicle",
                "height": 373.4910929754329,
                "scale": "special",
                "width": 290.6922661241019,
                "x": 1112.7101315655882,
                "y": 422.22372293002064
            },
            {
                "CM": 0,
                "FM": 0,
                "ID": 2,
                "IV": 0,
                "Occ": 0,
                "SV": 0,
                "class": "Vehicle",
                "height": 67.4235252665679,
                "scale": "special",
                "width": 69.8490211935727,
                "x": 941.7011251676087,
                "y": 617.877160693984
            },
            {
                "CM": 0,
                "FM": 0,
                "ID": 3,
                "IV": 0,
                "Occ": 1,
                "SV": 0,
                "class": "Vehicle",
                "height": 29.34163761337507,
                "scale": "small",
                "width": 33.54036398739123,
                "x": 924.8944911128063,
                "y": 649.3306046033338
            },
            {
                "CM": 0,
                "FM": 0,
                "ID": 5,
                "IV": 0,
                "Occ": 1,
                "SV": 0,
                "class": "Vehicle",
                "height": 45.6934619815,
                "scale": "special",
                "width": 29.9454108826,
                "x": 917.348065055,
                "y": 619.259853485
            },
            {
                "CM": 0,
                "FM": 0,
                "ID": 6,
                "IV": 0,
                "Occ": 1,
                "SV": 0,
                "class": "Vehicle",
                "height": 35.708774087643036,
                "scale": "notcare",
                "width": 39.64929389934803,
                "x": 778.5168561211459,
                "y": 615.4864216986149
            },
            {
                "CM": 0,
                "FM": 0,
                "ID": 8,
                "IV": 0,
                "Occ": 0,
                "SV": 0,
                "class": "Vehicle",
                "height": 30.74946062671371,
                "scale": "small",
                "width": 36.75016066116665,
                "x": 868.0699668013453,
                "y": 642.2896980353781
            }
        ],
        "class": "image",
        "filename": "..\\camera_12_5mm\\frame16017.jpg"
    },
    {
        "annotations": [
            {
                "CM": 0,
                "FM": 0,
                "ID": 1,
                "IV": 0,
                "Occ": 0,
                "SV": 0,
                "class": "Vehicle",
                "height": 383.8623584821417,
                "scale": "special",
                "width": 305.66579826408514,
                "x": 1123.8263296002883,
                "y": 418.48884103726994
            },
            {
                "CM": 0,
                "FM": 0,
                "ID": 2,
                "IV": 0,
                "Occ": 0,
                "SV": 0,
                "class": "Vehicle",
                "height": 68.4048333478,
                "scale": "special",
                "width": 71.2795545243,
                "x": 944.311624208,
                "y": 618.560482333
            },
            {
                "CM": 0,
                "FM": 0,
                "ID": 3,
                "IV": 0,
                "Occ": 1,
                "SV": 0,
                "class": "Vehicle",
                "height": 29.34163761337507,
                "scale": "small",
                "width": 33.54036398739123,
                "x": 930.9781739340372,
                "y": 649.3040007170414
            },
            {
                "CM": 0,
                "FM": 0,
                "ID": 5,
                "IV": 0,
                "Occ": 1,
                "SV": 0,
                "class": "Vehicle",
                "height": 45.6934619815,
                "scale": "special",
                "width": 29.9454108826,
                "x": 923.351936217,
                "y": 617.964087729
            },
            {
                "CM": 0,
                "FM": 0,
                "ID": 6,
                "IV": 0,
                "Occ": 1,
                "SV": 0,
                "class": "Vehicle",
                "height": 35.708774087643036,
                "scale": "notcare",
                "width": 39.64929389934803,
                "x": 781.3417626504532,
                "y": 616.567192093056
            },
            {
                "CM": 0,
                "FM": 0,
                "ID": 8,
                "IV": 0,
                "Occ": 0,
                "SV": 0,
                "class": "Vehicle",
                "height": 32.4703083544,
                "scale": "small",
                "width": 35.9202186607,
                "x": 872.641712856,
                "y": 642.361192659
            }
        ],
        "class": "image",
        "filename": "..\\camera_12_5mm\\frame16018.jpg"
    },
    {
        "annotations": [
            {
                "CM": 0,
                "FM": 0,
                "ID": 1,
                "IV": 0,
                "Occ": 0,
                "SV": 0,
                "class": "Vehicle",
                "height": 406.5854185450947,
                "scale": "special",
                "width": 341.7054592920712,
                "x": 1137.268423327572,
                "y": 405.04674730998636
            },
            {
                "CM": 0,
                "FM": 0,
                "ID": 2,
                "IV": 0,
                "Occ": 0,
                "SV": 0,
                "class": "Vehicle",
                "height": 68.4048333478,
                "scale": "special",
                "width": 71.2795545243,
                "x": 949.475719703,
                "y": 621.14253008
            },
            {
                "CM": 0,
                "FM": 0,
                "ID": 3,
                "IV": 0,
                "Occ": 1,
                "SV": 0,
                "class": "Vehicle",
                "height": 29.34163761337507,
                "scale": "small",
                "width": 33.54036398739123,
                "x": 936.8799973566845,
                "y": 651.1483205366188
            },
            {
                "CM": 0,
                "FM": 0,
                "ID": 5,
                "IV": 0,
                "Occ": 1,
                "SV": 0,
                "class": "Vehicle",
                "height": 45.6934619815,
                "scale": "special",
                "width": 29.9454108826,
                "x": 928.5160317118163,
                "y": 621.2838634042391
            },
            {
                "CM": 0,
                "FM": 0,
                "ID": 6,
                "IV": 0,
                "Occ": 1,
                "SV": 0,
                "class": "Vehicle",
                "height": 35.708774087643036,
                "scale": "notcare",
                "width": 39.64929389934803,
                "x": 781.3417626504532,
                "y": 616.567192093056
            },
            {
                "CM": 0,
                "FM": 0,
                "ID": 8,
                "IV": 0,
                "Occ": 0,
                "SV": 0,
                "class": "Vehicle",
                "height": 32.4703083544,
                "scale": "small",
                "width": 35.9202186607,
                "x": 876.699216459,
                "y": 644.574376442
            }
        ],
        "class": "image",
        "filename": "..\\camera_12_5mm\\frame16019.jpg"
    },
    {
        "annotations": [
            {
                "CM": 0,
                "FM": 0,
                "ID": 1,
                "IV": 0,
                "Occ": 0,
                "SV": 0,
                "class": "Vehicle",
                "height": 421.7726976635497,
                "scale": "special",
                "width": 360.4512671565639,
                "x": 1149.0734561059437,
                "y": 396.8740323095754
            },
            {
                "CM": 0,
                "FM": 0,
                "ID": 2,
                "IV": 0,
                "Occ": 0,
                "SV": 0,
                "class": "Vehicle",
                "height": 68.4048333478,
                "scale": "special",
                "width": 71.2795545243,
                "x": 952.715134093,
                "y": 621.790412958
            },
            {
                "CM": 0,
                "FM": 0,
                "ID": 3,
                "IV": 0,
                "Occ": 1,
                "SV": 0,
                "class": "Vehicle",
                "height": 29.34163761337507,
                "scale": "small",
                "width": 33.54036398739123,
                "x": 943.3588261360787,
                "y": 651.4722619755885
            },
            {
                "CM": 0,
                "FM": 0,
                "ID": 5,
                "IV": 0,
                "Occ": 1,
                "SV": 0,
                "class": "Vehicle",
                "height": 45.6934619815,
                "scale": "special",
                "width": 29.9454108826,
                "x": 932.0793875404831,
                "y": 622.9035705990877
            },
            {
                "CM": 0,
                "FM": 0,
                "ID": 6,
                "IV": 0,
                "Occ": 1,
                "SV": 0,
                "class": "Vehicle",
                "height": 35.708774087643036,
                "scale": "notcare",
                "width": 39.64929389934803,
                "x": 781.3417626504532,
                "y": 616.567192093056
            },
            {
                "CM": 0,
                "FM": 0,
                "ID": 8,
                "IV": 0,
                "Occ": 0,
                "SV": 0,
                "class": "Vehicle",
                "height": 32.4703083544,
                "scale": "small",
                "width": 35.9202186607,
                "x": 878.318923654,
                "y": 644.574376442
            }
        ],
        "class": "image",
        "filename": "..\\camera_12_5mm\\frame16020.jpg"
    },
    {
        "annotations": [
            {
                "CM": 0,
                "FM": 0,
                "ID": 1,
                "IV": 0,
                "Occ": 0,
                "SV": 0,
                "class": "Vehicle",
                "height": 439.7736636642977,
                "scale": "special",
                "width": 355.70656609658016,
                "x": 1158.7780174754184,
                "y": 381.77804795705924
            },
            {
                "CM": 0,
                "FM": 0,
                "ID": 2,
                "IV": 0,
                "Occ": 0,
                "SV": 0,
                "class": "Vehicle",
                "height": 68.4048333478,
                "scale": "special",
                "width": 71.2795545243,
                "x": 956.579301941,
                "y": 621.146384984
            },
            {
                "CM": 0,
                "FM": 0,
                "ID": 3,
                "IV": 0,
                "Occ": 1,
                "SV": 0,
                "class": "Vehicle",
                "height": 29.34163761337507,
                "scale": "small",
                "width": 33.54036398739123,
                "x": 948.5110499346043,
                "y": 652.7603179252197
            },
            {
                "CM": 0,
                "FM": 0,
                "ID": 5,
                "IV": 0,
                "Occ": 1,
                "SV": 0,
                "class": "Vehicle",
                "height": 45.6934619815,
                "scale": "special",
                "width": 29.9454108826,
                "x": 935.9435553893773,
                "y": 623.5475985739035
            },
            {
                "CM": 0,
                "FM": 0,
                "ID": 6,
                "IV": 0,
                "Occ": 1,
                "SV": 0,
                "class": "Vehicle",
                "height": 35.708774087643036,
                "scale": "notcare",
                "width": 39.64929389934803,
                "x": 781.3417626504532,
                "y": 616.567192093056
            },
            {
                "CM": 0,
                "FM": 0,
                "ID": 8,
                "IV": 0,
                "Occ": 0,
                "SV": 0,
                "class": "Vehicle",
                "height": 32.4703083544,
                "scale": "small",
                "width": 35.9202186607,
                "x": 882.183091503,
                "y": 644.574376442
            }
        ],
        "class": "image",
        "filename": "..\\camera_12_5mm\\frame16021.jpg"
    },
    {
        "annotations": [
            {
                "CM": 0,
                "FM": 0,
                "ID": 1,
                "IV": 0,
                "Occ": 0,
                "SV": 0,
                "class": "Vehicle",
                "height": 464.101111982188,
                "scale": "special",
                "width": 406.92224676582276,
                "x": 1169.0211536092668,
                "y": 370.25451980647955
            },
            {
                "CM": 0,
                "FM": 0,
                "ID": 2,
                "IV": 0,
                "Occ": 0,
                "SV": 0,
                "class": "Vehicle",
                "height": 68.7287747868,
                "scale": "special",
                "width": 73.8710860361,
                "x": 960.14265777,
                "y": 620.822443545
            },
            {
                "CM": 0,
                "FM": 0,
                "ID": 5,
                "IV": 0,
                "Occ": 1,
                "SV": 0,
                "class": "Vehicle",
                "height": 45.6934619815,
                "scale": "special",
                "width": 29.9454108826,
                "x": 940.4787355349531,
                "y": 623.5475985739035
            },
            {
                "CM": 0,
                "FM": 0,
                "ID": 6,
                "IV": 0,
                "Occ": 1,
                "SV": 0,
                "class": "Vehicle",
                "height": 35.708774087643036,
                "scale": "notcare",
                "width": 39.64929389934803,
                "x": 781.3417626504532,
                "y": 616.567192093056
            },
            {
                "CM": 0,
                "FM": 0,
                "ID": 8,
                "IV": 0,
                "Occ": 0,
                "SV": 0,
                "class": "Vehicle",
                "height": 32.4703083544,
                "scale": "small",
                "width": 35.9202186607,
                "x": 885.098564454,
                "y": 645.22225932
            }
        ],
        "class": "image",
        "filename": "..\\camera_12_5mm\\frame16022.jpg"
    },
    {
        "annotations": [
            {
                "CM": 0,
                "FM": 0,
                "ID": 1,
                "IV": 0,
                "Occ": 0,
                "SV": 0,
                "class": "Vehicle",
                "height": 483.30699223315395,
                "scale": "special",
                "width": 435.2355558947683,
                "x": 1185.6662498267704,
                "y": 353.6094235889756
            },
            {
                "CM": 0,
                "FM": 0,
                "ID": 2,
                "IV": 0,
                "Occ": 0,
                "SV": 0,
                "class": "Vehicle",
                "height": 68.7287747868,
                "scale": "special",
                "width": 73.8710860361,
                "x": 960.14265777,
                "y": 620.822443545
            },
            {
                "CM": 0,
                "FM": 0,
                "ID": 5,
                "IV": 0,
                "Occ": 1,
                "SV": 0,
                "class": "Vehicle",
                "height": 45.6934619815,
                "scale": "special",
                "width": 29.9454108826,
                "x": 944.1327949665315,
                "y": 623.0908411449562
            },
            {
                "CM": 0,
                "FM": 0,
                "ID": 6,
                "IV": 0,
                "Occ": 1,
                "SV": 0,
                "class": "Vehicle",
                "height": 35.708774087643036,
                "scale": "notcare",
                "width": 39.64929389934803,
                "x": 781.3417626504532,
                "y": 616.567192093056
            },
            {
                "CM": 0,
                "FM": 0,
                "ID": 8,
                "IV": 0,
                "Occ": 0,
                "SV": 0,
                "class": "Vehicle",
                "height": 32.4703083544,
                "scale": "small",
                "width": 35.9202186607,
                "x": 888.295866456,
                "y": 644.765501891
            }
        ],
        "class": "image",
        "filename": "..\\camera_12_5mm\\frame16023.jpg"
    },
    {
        "annotations": [
            {
                "CM": 0,
                "FM": 0,
                "ID": 1,
                "IV": 0,
                "Occ": 0,
                "SV": 0,
                "class": "Vehicle",
                "height": 519.1579687016238,
                "scale": "special",
                "width": 469.6614555856451,
                "x": 1197.18977797735,
                "y": 333.12315132127867
            },
            {
                "CM": 0,
                "FM": 0,
                "ID": 2,
                "IV": 0,
                "Occ": 0,
                "SV": 0,
                "class": "Vehicle",
                "height": 71.4693193605,
                "scale": "special",
                "width": 73.8710860361,
                "x": 965.166989488,
                "y": 622.64947326
            },
            {
                "CM": 0,
                "FM": 0,
                "ID": 5,
                "IV": 0,
                "Occ": 1,
                "SV": 0,
                "class": "Vehicle",
                "height": 45.6934619815,
                "scale": "special",
                "width": 29.9454108826,
                "x": 947.7868543981098,
                "y": 625.83138571864
            },
            {
                "CM": 0,
                "FM": 0,
                "ID": 6,
                "IV": 0,
                "Occ": 1,
                "SV": 0,
                "class": "Vehicle",
                "height": 35.708774087643036,
                "scale": "notcare",
                "width": 48.78444247829389,
                "x": 774.0336437872966,
                "y": 620.2212515246342
            },
            {
                "CM": 0,
                "FM": 0,
                "ID": 8,
                "IV": 0,
                "Occ": 0,
                "SV": 0,
                "class": "Vehicle",
                "height": 32.4703083544,
                "scale": "small",
                "width": 35.9202186607,
                "x": 890.122896172,
                "y": 648.876318752
            }
        ],
        "class": "image",
        "filename": "..\\camera_12_5mm\\frame16024.jpg"
    }
]
