[
    {
        "annotations": [
            {
                "CM": 0,
                "FM": 0,
                "ID": 1,
                "IV": 0,
                "Occ": 0,
                "SV": 0,
                "class": "Vehicle",
                "height": 1090.6685379214869,
                "scale": "special",
                "width": 342.97064982750544,
                "x": 1573.4897810916787,
                "y": 107.33563389068601
            },
            {
                "CM": 0,
                "FM": 0,
                "ID": 2,
                "IV": 0,
                "Occ": 0,
                "SV": 0,
                "class": "Vehicle",
                "height": 258.6249739622832,
                "scale": "special",
                "width": 262.9789297528939,
                "x": 989.7114051896044,
                "y": 613.0369753180046
            },
            {
                "CM": 0,
                "FM": 0,
                "ID": 3,
                "IV": 0,
                "Occ": 1,
                "SV": 0,
                "class": "Vehicle",
                "height": 108.343663945,
                "scale": "small",
                "width": 125.932175604,
                "x": 916.483211872,
                "y": 730.254345061
            },
            {
                "CM": 0,
                "FM": 0,
                "ID": 4,
                "IV": 0,
                "Occ": 0,
                "SV": 0,
                "class": "Vehicle",
                "height": 122.78155329522542,
                "scale": "small",
                "width": 133.23104719269145,
                "x": 716.6611231345429,
                "y": 700.1160911302218
            },
            {
                "CM": 0,
                "FM": 0,
                "ID": 5,
                "IV": 0,
                "Occ": 1,
                "SV": 0,
                "class": "Vehicle",
                "height": 174.158231624,
                "scale": "special",
                "width": 101.011774342,
                "x": 908.235177921,
                "y": 611.295393002
            },
            {
                "CM": 0,
                "FM": 0,
                "ID": 6,
                "IV": 0,
                "Occ": 1,
                "SV": 0,
                "class": "Vehicle",
                "height": 124.667535932,
                "scale": "notcare",
                "width": 160.555816886,
                "x": 387.043021826,
                "y": 602.06537212
            },
            {
                "CM": 0,
                "FM": 0,
                "ID": 7,
                "IV": 0,
                "Occ": 1,
                "SV": 0,
                "class": "Vehicle",
                "height": 65.2622516776,
                "scale": "notcare",
                "width": 78.84030404,
                "x": 842.277248161,
                "y": 674.960602921
            }
        ],
        "class": "image",
        "filename": "..\\camera_50mm\\frame16015.jpg"
    },
    {
        "annotations": [
            {
                "CM": 0,
                "FM": 0,
                "ID": 1,
                "IV": 0,
                "Occ": 0,
                "SV": 0,
                "class": "Vehicle",
                "height": 1087.8249360257523,
                "scale": "special",
                "width": 298.5804172856142,
                "x": 1617.88001363357,
                "y": 107.33563389068601
            },
            {
                "CM": 0,
                "FM": 0,
                "ID": 2,
                "IV": 0,
                "Occ": 0,
                "SV": 0,
                "class": "Vehicle",
                "height": 262.0217750959588,
                "scale": "special",
                "width": 265.5265306031506,
                "x": 1003.6983421943082,
                "y": 601.1481713501399
            },
            {
                "CM": 0,
                "FM": 0,
                "ID": 3,
                "IV": 0,
                "Occ": 1,
                "SV": 0,
                "class": "Vehicle",
                "height": 108.343663945,
                "scale": "small",
                "width": 125.932175604,
                "x": 942.8084206579856,
                "y": 719.5670653814086
            },
            {
                "CM": 0,
                "FM": 0,
                "ID": 4,
                "IV": 0,
                "Occ": 0,
                "SV": 0,
                "class": "Vehicle",
                "height": 122.78155329522542,
                "scale": "small",
                "width": 133.23104719269145,
                "x": 732.795928519502,
                "y": 688.2272871623574
            },
            {
                "CM": 0,
                "FM": 0,
                "ID": 5,
                "IV": 0,
                "Occ": 1,
                "SV": 0,
                "class": "Vehicle",
                "height": 174.158231624,
                "scale": "notcare",
                "width": 101.011774342,
                "x": 927.7667844396345,
                "y": 600.2557893175543
            },
            {
                "CM": 0,
                "FM": 0,
                "ID": 6,
                "IV": 0,
                "Occ": 1,
                "SV": 0,
                "class": "Vehicle",
                "height": 116.17553309781105,
                "scale": "notcare",
                "width": 157.15901575232442,
                "x": 392.9874238099322,
                "y": 594.4225695692298
            },
            {
                "CM": 0,
                "FM": 0,
                "ID": 7,
                "IV": 0,
                "Occ": 1,
                "SV": 0,
                "class": "Vehicle",
                "height": 55.92104855999216,
                "scale": "notcare",
                "width": 81.38790489025669,
                "x": 856.7136529791212,
                "y": 662.2225986697166
            }
        ],
        "class": "image",
        "filename": "..\\camera_50mm\\frame16016.jpg"
    },
    {
        "annotations": [
            {
                "CM": 0,
                "FM": 0,
                "ID": 2,
                "IV": 0,
                "Occ": 0,
                "SV": 0,
                "class": "Vehicle",
                "height": 258.6249739622832,
                "scale": "special",
                "width": 269.44863733254374,
                "x": 1016.8391682616243,
                "y": 611.9586907213964
            },
            {
                "CM": 0,
                "FM": 0,
                "ID": 3,
                "IV": 0,
                "Occ": 1,
                "SV": 0,
                "class": "Vehicle",
                "height": 108.343663945,
                "scale": "small",
                "width": 125.932175604,
                "x": 968.2408725091983,
                "y": 729.1760604643916
            },
            {
                "CM": 0,
                "FM": 0,
                "ID": 4,
                "IV": 0,
                "Occ": 0,
                "SV": 0,
                "class": "Vehicle",
                "height": 118.46841490879217,
                "scale": "small",
                "width": 132.15276259608322,
                "x": 745.7748072429671,
                "y": 696.8812373403968
            },
            {
                "CM": 0,
                "FM": 0,
                "ID": 5,
                "IV": 0,
                "Occ": 1,
                "SV": 0,
                "class": "Vehicle",
                "height": 174.158231624,
                "scale": "notcare",
                "width": 101.011774342,
                "x": 944.8968542056821,
                "y": 608.0605392121752
            },
            {
                "CM": 0,
                "FM": 0,
                "ID": 6,
                "IV": 0,
                "Occ": 1,
                "SV": 0,
                "class": "Vehicle",
                "height": 124.667535932,
                "scale": "notcare",
                "width": 160.555816886,
                "x": 392.43444480904145,
                "y": 598.830518330175
            },
            {
                "CM": 0,
                "FM": 0,
                "ID": 7,
                "IV": 0,
                "Occ": 1,
                "SV": 0,
                "class": "Vehicle",
                "height": 65.2622516776,
                "scale": "notcare",
                "width": 78.84030404,
                "x": 863.8429400931661,
                "y": 664.177756954917
            },
            {
                "CM": 0,
                "FM": 0,
                "ID": 1,
                "IV": 0,
                "Occ": 1,
                "SV": 0,
                "class": "Vehicle",
                "height": 971.7283341707912,
                "scale": "special",
                "width": 274.38381110922364,
                "x": 1643.5933705127763,
                "y": 222.016651249
            }
        ],
        "class": "image",
        "filename": "..\\camera_50mm\\frame16017.jpg"
    },
    {
        "annotations": [
            {
                "CM": 0,
                "FM": 0,
                "ID": 2,
                "IV": 0,
                "Occ": 0,
                "SV": 0,
                "class": "Vehicle",
                "height": 258.6249739622832,
                "scale": "special",
                "width": 262.9789297528939,
                "x": 1036.2482910005733,
                "y": 618.4283983010462
            },
            {
                "CM": 0,
                "FM": 0,
                "ID": 3,
                "IV": 0,
                "Occ": 1,
                "SV": 0,
                "class": "Vehicle",
                "height": 108.343663945,
                "scale": "small",
                "width": 125.932175604,
                "x": 989.1335924945448,
                "y": 730.254345061
            },
            {
                "CM": 0,
                "FM": 0,
                "ID": 4,
                "IV": 0,
                "Occ": 0,
                "SV": 0,
                "class": "Vehicle",
                "height": 119.72258990059197,
                "scale": "small",
                "width": 132.46630634403311,
                "x": 757.1923881134366,
                "y": 703.1750545248553
            },
            {
                "CM": 0,
                "FM": 0,
                "ID": 5,
                "IV": 0,
                "Occ": 1,
                "SV": 0,
                "class": "Vehicle",
                "height": 174.158231624,
                "scale": "notcare",
                "width": 101.011774342,
                "x": 966.3554824190359,
                "y": 611.295393002
            },
            {
                "CM": 0,
                "FM": 0,
                "ID": 6,
                "IV": 0,
                "Occ": 1,
                "SV": 0,
                "class": "Vehicle",
                "height": 124.667535932,
                "scale": "notcare",
                "width": 160.555816886,
                "x": 396.9846528585588,
                "y": 605.8890763632917
            },
            {
                "CM": 0,
                "FM": 0,
                "ID": 7,
                "IV": 0,
                "Occ": 1,
                "SV": 0,
                "class": "Vehicle",
                "height": 62.203288282966554,
                "scale": "notcare",
                "width": 69.66341385609965,
                "x": 874.3963638046516,
                "y": 672.6663803750248
            },
            {
                "CM": 0,
                "FM": 0,
                "ID": 1,
                "IV": 0,
                "Occ": 0,
                "SV": 0,
                "class": "Vehicle",
                "height": 980.573543016,
                "scale": "special",
                "width": 250.796587522,
                "x": 1667.1805941,
                "y": 222.016651249
            }
        ],
        "class": "image",
        "filename": "..\\camera_50mm\\frame16018.jpg"
    },
    {
        "annotations": [
            {
                "CM": 0,
                "FM": 0,
                "ID": 2,
                "IV": 0,
                "Occ": 0,
                "SV": 0,
                "class": "Vehicle",
                "height": 258.6249739622832,
                "scale": "special",
                "width": 262.9789297528939,
                "x": 1045.5894941181812,
                "y": 618.4283983010463
            },
            {
                "CM": 0,
                "FM": 0,
                "ID": 3,
                "IV": 0,
                "Occ": 1,
                "SV": 0,
                "class": "Vehicle",
                "height": 108.343663945,
                "scale": "small",
                "width": 125.932175604,
                "x": 1013.760400713693,
                "y": 731.9527456278377
            },
            {
                "CM": 0,
                "FM": 0,
                "ID": 4,
                "IV": 0,
                "Occ": 0,
                "SV": 0,
                "class": "Vehicle",
                "height": 119.72258990059197,
                "scale": "small",
                "width": 132.46630634403311,
                "x": 771.6287929315579,
                "y": 703.1750545248552
            },
            {
                "CM": 0,
                "FM": 0,
                "ID": 5,
                "IV": 0,
                "Occ": 1,
                "SV": 0,
                "class": "Vehicle",
                "height": 174.158231624,
                "scale": "notcare",
                "width": 101.011774342,
                "x": 978.2442863869004,
                "y": 610.4461927185811
            },
            {
                "CM": 0,
                "FM": 0,
                "ID": 6,
                "IV": 0,
                "Occ": 1,
                "SV": 0,
                "class": "Vehicle",
                "height": 128.0643370656756,
                "scale": "notcare",
                "width": 163.95261801967558,
                "x": 396.9846528585588,
                "y": 602.4922752296161
            },
            {
                "CM": 0,
                "FM": 0,
                "ID": 7,
                "IV": 0,
                "Occ": 1,
                "SV": 0,
                "class": "Vehicle",
                "height": 62.203288282966554,
                "scale": "notcare",
                "width": 69.66341385609965,
                "x": 882.0391663554217,
                "y": 671.817180091606
            },
            {
                "CM": 0,
                "FM": 0,
                "ID": 1,
                "IV": 0,
                "Occ": 0,
                "SV": 0,
                "class": "Vehicle",
                "height": 884.360189573,
                "scale": "special",
                "width": 187.677725118,
                "x": 1733.17535545,
                "y": 315.639810427
            }
        ],
        "class": "image",
        "filename": "..\\camera_50mm\\frame16019.jpg"
    },
    {
        "annotations": [
            {
                "CM": 0,
                "FM": 0,
                "ID": 2,
                "IV": 0,
                "Occ": 0,
                "SV": 0,
                "class": "Vehicle",
                "height": 258.6249739622832,
                "scale": "special",
                "width": 262.9789297528939,
                "x": 1062.4137927886657,
                "y": 616.8989166037296
            },
            {
                "CM": 0,
                "FM": 0,
                "ID": 3,
                "IV": 0,
                "Occ": 1,
                "SV": 0,
                "class": "Vehicle",
                "height": 108.343663945,
                "scale": "small",
                "width": 125.932175604,
                "x": 1034.4084036274692,
                "y": 731.9527456278375
            },
            {
                "CM": 0,
                "FM": 0,
                "ID": 4,
                "IV": 0,
                "Occ": 0,
                "SV": 0,
                "class": "Vehicle",
                "height": 119.72258990059197,
                "scale": "small",
                "width": 132.46630634403311,
                "x": 782.335164812775,
                "y": 703.1750545248552
            },
            {
                "CM": 0,
                "FM": 0,
                "ID": 5,
                "IV": 0,
                "Occ": 1,
                "SV": 0,
                "class": "Vehicle",
                "height": 174.158231624,
                "scale": "notcare",
                "width": 101.011774342,
                "x": 995.0685850573844,
                "y": 615.7993786591896
            },
            {
                "CM": 0,
                "FM": 0,
                "ID": 6,
                "IV": 0,
                "Occ": 1,
                "SV": 0,
                "class": "Vehicle",
                "height": 128.0643370656756,
                "scale": "notcare",
                "width": 163.95261801967558,
                "x": 396.9846528585588,
                "y": 602.4922752296161
            },
            {
                "CM": 0,
                "FM": 0,
                "ID": 7,
                "IV": 0,
                "Occ": 1,
                "SV": 0,
                "class": "Vehicle",
                "height": 62.203288282966554,
                "scale": "notcare",
                "width": 69.66341385609965,
                "x": 891.9807973879805,
                "y": 670.2876983942891
            },
            {
                "CM": 0,
                "FM": 0,
                "ID": 1,
                "IV": 0,
                "Occ": 0,
                "SV": 0,
                "class": "Vehicle",
                "height": 902.0506072634176,
                "scale": "special",
                "width": 184.7293221695969,
                "x": 1733.17535545,
                "y": 297.9493927365823
            }
        ],
        "class": "image",
        "filename": "..\\camera_50mm\\frame16020.jpg"
    },
    {
        "annotations": [
            {
                "CM": 0,
                "FM": 0,
                "ID": 2,
                "IV": 0,
                "Occ": 0,
                "SV": 0,
                "class": "Vehicle",
                "height": 258.6249739622832,
                "scale": "special",
                "width": 262.9789297528939,
                "x": 1069.635203763029,
                "y": 616.8989166037295
            },
            {
                "CM": 0,
                "FM": 0,
                "ID": 4,
                "IV": 0,
                "Occ": 0,
                "SV": 0,
                "class": "Vehicle",
                "height": 119.72258990059197,
                "scale": "small",
                "width": 132.46630634403311,
                "x": 793.1672812743199,
                "y": 706.7857600120369
            },
            {
                "CM": 0,
                "FM": 0,
                "ID": 5,
                "IV": 0,
                "Occ": 1,
                "SV": 0,
                "class": "Vehicle",
                "height": 174.158231624,
                "scale": "notcare",
                "width": 101.011774342,
                "x": 1007.7060542625202,
                "y": 621.2154368899622
            },
            {
                "CM": 0,
                "FM": 0,
                "ID": 6,
                "IV": 0,
                "Occ": 1,
                "SV": 0,
                "class": "Vehicle",
                "height": 128.0643370656756,
                "scale": "notcare",
                "width": 163.95261801967558,
                "x": 396.9846528585588,
                "y": 602.4922752296161
            },
            {
                "CM": 0,
                "FM": 0,
                "ID": 7,
                "IV": 0,
                "Occ": 1,
                "SV": 0,
                "class": "Vehicle",
                "height": 62.203288282966554,
                "scale": "notcare",
                "width": 69.66341385609965,
                "x": 895.591502875162,
                "y": 670.2876983942891
            },
            {
                "CM": 0,
                "FM": 0,
                "ID": 1,
                "IV": 0,
                "Occ": 0,
                "SV": 0,
                "class": "Vehicle",
                "height": 895.4914988278331,
                "scale": "special",
                "width": 112.5152124255969,
                "x": 1805.38946519,
                "y": 300.8977956849852
            }
        ],
        "class": "image",
        "filename": "..\\camera_50mm\\frame16021.jpg"
    },
    {
        "annotations": [
            {
                "CM": 0,
                "FM": 0,
                "ID": 2,
                "IV": 0,
                "Occ": 0,
                "SV": 0,
                "class": "Vehicle",
                "height": 274.06232451861524,
                "scale": "special",
                "width": 265.70316808636426,
                "x": 1084.8390165752062,
                "y": 610.5838537347037
            },
            {
                "CM": 0,
                "FM": 0,
                "ID": 4,
                "IV": 0,
                "Occ": 0,
                "SV": 0,
                "class": "Vehicle",
                "height": 119.72258990059197,
                "scale": "small",
                "width": 132.46630634403311,
                "x": 803.1561551637111,
                "y": 707.693839456527
            },
            {
                "CM": 0,
                "FM": 0,
                "ID": 5,
                "IV": 0,
                "Occ": 1,
                "SV": 0,
                "class": "Vehicle",
                "height": 174.158231624,
                "scale": "notcare",
                "width": 101.011774342,
                "x": 1024.051484263342,
                "y": 621.2154368899622
            },
            {
                "CM": 0,
                "FM": 0,
                "ID": 6,
                "IV": 0,
                "Occ": 1,
                "SV": 0,
                "class": "Vehicle",
                "height": 128.0643370656756,
                "scale": "notcare",
                "width": 172.1253330200866,
                "x": 391.53617619161815,
                "y": 603.4003546741061
            },
            {
                "CM": 0,
                "FM": 0,
                "ID": 7,
                "IV": 0,
                "Occ": 1,
                "SV": 0,
                "class": "Vehicle",
                "height": 62.203288282966554,
                "scale": "notcare",
                "width": 69.66341385609965,
                "x": 896.499582319652,
                "y": 670.2876983942891
            },
            {
                "CM": 0,
                "FM": 0,
                "ID": 1,
                "IV": 0,
                "Occ": 0,
                "SV": 0,
                "class": "Vehicle",
                "height": 926.360922522,
                "scale": "special",
                "width": 65.2910330942,
                "x": 1854.04166619,
                "y": 265.467228147
            }
        ],
        "class": "image",
        "filename": "..\\camera_50mm\\frame16022.jpg"
    },
    {
        "annotations": [
            {
                "CM": 0,
                "FM": 0,
                "ID": 2,
                "IV": 0,
                "Occ": 0,
                "SV": 0,
                "class": "Vehicle",
                "height": 272.5419432373975,
                "scale": "special",
                "width": 277.86621833610593,
                "x": 1084.8390165752062,
                "y": 613.6246162971391
            },
            {
                "CM": 0,
                "FM": 0,
                "ID": 4,
                "IV": 0,
                "Occ": 0,
                "SV": 0,
                "class": "Vehicle",
                "height": 122.91989190322306,
                "scale": "small",
                "width": 132.46630634403311,
                "x": 810.921031455815,
                "y": 719.1127751802094
            },
            {
                "CM": 0,
                "FM": 0,
                "ID": 5,
                "IV": 0,
                "Occ": 1,
                "SV": 0,
                "class": "Vehicle",
                "height": 175.67861290521773,
                "scale": "notcare",
                "width": 110.1340620293062,
                "x": 1036.214534513084,
                "y": 625.7765807336153
            },
            {
                "CM": 0,
                "FM": 0,
                "ID": 6,
                "IV": 0,
                "Occ": 1,
                "SV": 0,
                "class": "Vehicle",
                "height": 142.08203682158359,
                "scale": "notcare",
                "width": 178.59504059973642,
                "x": 382.9098994187518,
                "y": 606.6352084639308
            },
            {
                "CM": 0,
                "FM": 0,
                "ID": 7,
                "IV": 0,
                "Occ": 1,
                "SV": 0,
                "class": "Vehicle",
                "height": 62.203288282966554,
                "scale": "notcare",
                "width": 69.66341385609965,
                "x": 902.4374288959666,
                "y": 682.620148975866
            }
        ],
        "class": "image",
        "filename": "..\\camera_50mm\\frame16023.jpg"
    },
    {
        "annotations": [
            {
                "CM": 0,
                "FM": 0,
                "ID": 2,
                "IV": 0,
                "Occ": 0,
                "SV": 0,
                "class": "Vehicle",
                "height": 272.5419432373975,
                "scale": "special",
                "width": 277.86621833610593,
                "x": 1099.0076320211517,
                "y": 614.2686442719549
            },
            {
                "CM": 0,
                "FM": 0,
                "ID": 4,
                "IV": 0,
                "Occ": 0,
                "SV": 0,
                "class": "Vehicle",
                "height": 122.91989190322306,
                "scale": "small",
                "width": 132.46630634403311,
                "x": 817.3613112039717,
                "y": 714.6045793564996
            },
            {
                "CM": 0,
                "FM": 0,
                "ID": 5,
                "IV": 0,
                "Occ": 1,
                "SV": 0,
                "class": "Vehicle",
                "height": 175.67861290521773,
                "scale": "notcare",
                "width": 110.1340620293062,
                "x": 1046.518982110135,
                "y": 623.2004688343527
            },
            {
                "CM": 0,
                "FM": 0,
                "ID": 6,
                "IV": 0,
                "Occ": 1,
                "SV": 0,
                "class": "Vehicle",
                "height": 142.08203682158359,
                "scale": "notcare",
                "width": 178.59504059973642,
                "x": 375.2275473183654,
                "y": 604.0744244304686
            },
            {
                "CM": 0,
                "FM": 0,
                "ID": 7,
                "IV": 0,
                "Occ": 1,
                "SV": 0,
                "class": "Vehicle",
                "height": 62.203288282966554,
                "scale": "notcare",
                "width": 69.66341385609965,
                "x": 901.7934009211509,
                "y": 674.8918132780777
            }
        ],
        "class": "image",
        "filename": "..\\camera_50mm\\frame16024.jpg"
    }
]
